%YAML 1.1
%TAG !u! tag:unity3d.com,2011:
--- !u!1001 &4980749381826503852
PrefabInstance:
  m_ObjectHideFlags: 0
  serializedVersion: 2
  m_Modification:
    m_TransformParent: {fileID: 0}
    m_Modifications:
    - target: {fileID: 72981876344569799, guid: ef53bb7c6525347c58e2182d60f8f31c,
        type: 3}
      propertyPath: m_Name
      value: BirdFish 4
      objectReference: {fileID: 0}
    - target: {fileID: 72981876344569797, guid: ef53bb7c6525347c58e2182d60f8f31c,
        type: 3}
      propertyPath: m_LocalPosition.x
      value: 349.58
      objectReference: {fileID: 0}
    - target: {fileID: 72981876344569797, guid: ef53bb7c6525347c58e2182d60f8f31c,
        type: 3}
      propertyPath: m_LocalPosition.y
      value: 157.54
      objectReference: {fileID: 0}
    - target: {fileID: 72981876344569797, guid: ef53bb7c6525347c58e2182d60f8f31c,
        type: 3}
      propertyPath: m_LocalPosition.z
      value: 169.45
      objectReference: {fileID: 0}
    - target: {fileID: 72981876344569797, guid: ef53bb7c6525347c58e2182d60f8f31c,
        type: 3}
      propertyPath: m_LocalRotation.x
      value: -0
      objectReference: {fileID: 0}
    - target: {fileID: 72981876344569797, guid: ef53bb7c6525347c58e2182d60f8f31c,
        type: 3}
      propertyPath: m_LocalRotation.y
      value: -0
      objectReference: {fileID: 0}
    - target: {fileID: 72981876344569797, guid: ef53bb7c6525347c58e2182d60f8f31c,
        type: 3}
      propertyPath: m_LocalRotation.z
      value: -0
      objectReference: {fileID: 0}
    - target: {fileID: 72981876344569797, guid: ef53bb7c6525347c58e2182d60f8f31c,
        type: 3}
      propertyPath: m_LocalRotation.w
      value: 1
      objectReference: {fileID: 0}
    - target: {fileID: 72981876344569797, guid: ef53bb7c6525347c58e2182d60f8f31c,
        type: 3}
      propertyPath: m_RootOrder
      value: 0
      objectReference: {fileID: 0}
    - target: {fileID: 72981876344569797, guid: ef53bb7c6525347c58e2182d60f8f31c,
        type: 3}
      propertyPath: m_LocalEulerAnglesHint.x
      value: 0
      objectReference: {fileID: 0}
    - target: {fileID: 72981876344569797, guid: ef53bb7c6525347c58e2182d60f8f31c,
        type: 3}
      propertyPath: m_LocalEulerAnglesHint.y
      value: 0
      objectReference: {fileID: 0}
    - target: {fileID: 72981876344569797, guid: ef53bb7c6525347c58e2182d60f8f31c,
        type: 3}
      propertyPath: m_LocalEulerAnglesHint.z
      value: 0
      objectReference: {fileID: 0}
    - target: {fileID: 72981877055964500, guid: ef53bb7c6525347c58e2182d60f8f31c,
        type: 3}
      propertyPath: m_Mesh
      value: 
      objectReference: {fileID: 70625520553715669, guid: 34754f3d609344071874843223ec9e52,
        type: 3}
    m_RemovedComponents: []
  m_SourcePrefab: {fileID: 100100000, guid: ef53bb7c6525347c58e2182d60f8f31c, type: 3}
