%YAML 1.1
%TAG !u! tag:unity3d.com,2011:
--- !u!21 &2100000
Material:
  serializedVersion: 6
  m_ObjectHideFlags: 0
  m_CorrespondingSourceObject: {fileID: 0}
  m_PrefabInstance: {fileID: 0}
  m_PrefabAsset: {fileID: 0}
  m_Name: Balls
  m_Shader: {fileID: 4800000, guid: a903d92031ba1404d9a01b75ad15fc5d, type: 3}
  m_ShaderKeywords: _EMISSION
  m_LightmapFlags: 1
  m_EnableInstancingVariants: 0
  m_DoubleSidedGI: 0
  m_CustomRenderQueue: -1
  stringTagMap: {}
  disabledShaderPasses: []
  m_SavedProperties:
    serializedVersion: 3
    m_TexEnvs:
    - _Albedo:
        m_Texture: {fileID: 2800000, guid: 9d4937c95610b443a939fff13490e426, type: 3}
        m_Scale: {x: 1, y: 1}
        m_Offset: {x: 0, y: 0}
    - _BumpMap:
        m_Texture: {fileID: 0}
        m_Scale: {x: 1, y: 1}
        m_Offset: {x: 0, y: 0}
    - _DetailAlbedoMap:
        m_Texture: {fileID: 0}
        m_Scale: {x: 1, y: 1}
        m_Offset: {x: 0, y: 0}
    - _DetailMask:
        m_Texture: {fileID: 0}
        m_Scale: {x: 1, y: 1}
        m_Offset: {x: 0, y: 0}
    - _DetailNormalMap:
        m_Texture: {fileID: 0}
        m_Scale: {x: 1, y: 1}
        m_Offset: {x: 0, y: 0}
    - _EmissionMap:
        m_Texture: {fileID: 0}
        m_Scale: {x: 1, y: 1}
        m_Offset: {x: 0, y: 0}
    - _LightGradient:
        m_Texture: {fileID: 2800000, guid: bde49b316487a4c61b70b807add703f9, type: 3}
        m_Scale: {x: 1, y: 1}
        m_Offset: {x: 0, y: 0}
    - _MainTex:
        m_Texture: {fileID: 0}
        m_Scale: {x: 1, y: 1}
        m_Offset: {x: 0, y: 0}
    - _MetallicGlossMap:
        m_Texture: {fileID: 0}
        m_Scale: {x: 1, y: 1}
        m_Offset: {x: 0, y: 0}
    - _NoiseTexture:
        m_Texture: {fileID: 2800000, guid: 603157a3caeea43999aef1b50133ecdf, type: 3}
        m_Scale: {x: 3, y: 3}
        m_Offset: {x: 0, y: 0}
    - _OcclusionMap:
        m_Texture: {fileID: 0}
        m_Scale: {x: 1, y: 1}
        m_Offset: {x: 0, y: 0}
    - _ParallaxMap:
        m_Texture: {fileID: 0}
        m_Scale: {x: 1, y: 1}
        m_Offset: {x: 0, y: 0}
    - _TextureSample0:
        m_Texture: {fileID: 2800000, guid: eea37f14714c74d5b9194d84f5a30162, type: 3}
        m_Scale: {x: 1, y: 1}
        m_Offset: {x: 0, y: 0}
    - _TopTexture0:
        m_Texture: {fileID: 2800000, guid: 89fad33e67f1b4c1ba8ddce968a383d5, type: 3}
        m_Scale: {x: 1, y: 1}
        m_Offset: {x: 0, y: 0}
    - _texcoord:
        m_Texture: {fileID: 0}
        m_Scale: {x: 1, y: 1}
        m_Offset: {x: 0, y: 0}
    - _texcoord2:
        m_Texture: {fileID: 0}
        m_Scale: {x: 1, y: 1}
        m_Offset: {x: 0, y: 0}
    - unity_Lightmap:
        m_Texture: {fileID: 0}
        m_Scale: {x: 1, y: 1}
        m_Offset: {x: 0, y: 0}
    m_Floats:
    - _BumpScale: 1
    - _ClipBrightness: 1
    - _Cutoff: 0.5
    - _DarkFresnelPower: 4.8
    - _DarkFresnelScale: 0.12
    - _DetailNormalMapScale: 1
    - _DstBlend: 0
    - _FresnelPower: -9
    - _FresnelScale: 0
    - _GlossMapScale: 1
    - _Glossiness: 0.5
    - _GlossyReflections: 1
    - _LightingGamma: 10
    - _Metallic: 0
    - _Mode: 0
    - _NoiseMultiplier: 0.4
    - _NoiseTiling: -0.8
    - _OcclusionStrength: 1
    - _Parallax: 0.02
    - _PointLightHardness: 0
    - _SmoothnessTextureChannel: 0
    - _SpecularHighlights: 1
    - _SrcBlend: 1
    - _UVSec: 0
    - _ZWrite: 1
    - __dirty: 0
    - _maxHeight: 144.3
    - _minHeight: 125.5
    m_Colors:
    - _AlbedoColor: {r: 1, g: 1, b: 1, a: 0}
    - _AlbedoNoise0: {r: 1, g: 1, b: 1, a: 0}
    - _AlbedoNoise1: {r: 1, g: 1, b: 1, a: 0}
    - _AlbedoNoise2: {r: 1, g: 1, b: 1, a: 0}
    - _Ambient: {r: 0.24528301, g: 0.24528301, b: 0.24528301, a: 0}
    - _AmbientColor: {r: 0, g: 0, b: 0, a: 0}
    - _BottomColor: {r: 0.7264151, g: 0.66250044, b: 0.5242524, a: 0}
    - _Color: {r: 0.46008304, g: 1, b: 0.39999998, a: 1}
    - _Color0: {r: 0.740566, g: 0.8576714, b: 1, a: 0}
    - _Color1: {r: 1, g: 0.9413713, b: 0.7688679, a: 0}
    - _Color2: {r: 0.6740208, g: 0.36765754, b: 0.9622642, a: 0}
    - _Color3: {r: 1, g: 1, b: 1, a: 0}
    - _DarkFresnelColor: {r: 0.31132078, g: 0.26873446, b: 0.2959863, a: 0}
    - _EmissionColor: {r: 0.24012107, g: 0.4505155, b: 0.7169812, a: 1}
    - _FresnelColor: {r: 0, g: 0, b: 0, a: 0}
    - _GIColor: {r: 0, g: 0, b: 0, a: 0}
    - _TopColor: {r: 0.6476059, g: 0.7264151, b: 0.7199916, a: 0}
