%YAML 1.1
%TAG !u! tag:unity3d.com,2011:
--- !u!21 &2100000
Material:
  serializedVersion: 6
  m_ObjectHideFlags: 0
  m_CorrespondingSourceObject: {fileID: 0}
  m_PrefabInstance: {fileID: 0}
  m_PrefabAsset: {fileID: 0}
  m_Name: GateCreature_Body
  m_Shader: {fileID: 4800000, guid: a903d92031ba1404d9a01b75ad15fc5d, type: 3}
  m_ShaderKeywords: _EMISSION
  m_LightmapFlags: 5
  m_EnableInstancingVariants: 0
  m_DoubleSidedGI: 0
  m_CustomRenderQueue: -1
  stringTagMap: {}
  disabledShaderPasses: []
  m_SavedProperties:
    serializedVersion: 3
    m_TexEnvs:
    - _Albedo:
        m_Texture: {fileID: 2800000, guid: af5ab63a69b074347be0e4c17fb9dc1b, type: 3}
        m_Scale: {x: 1, y: 1}
        m_Offset: {x: 0, y: 0}
    - _BumpMap:
        m_Texture: {fileID: 0}
        m_Scale: {x: 1, y: 1}
        m_Offset: {x: 0, y: 0}
    - _DetailAlbedoMap:
        m_Texture: {fileID: 0}
        m_Scale: {x: 1, y: 1}
        m_Offset: {x: 0, y: 0}
    - _DetailMask:
        m_Texture: {fileID: 0}
        m_Scale: {x: 1, y: 1}
        m_Offset: {x: 0, y: 0}
    - _DetailNormalMap:
        m_Texture: {fileID: 0}
        m_Scale: {x: 1, y: 1}
        m_Offset: {x: 0, y: 0}
    - _EmissionMap:
        m_Texture: {fileID: 0}
        m_Scale: {x: 1, y: 1}
        m_Offset: {x: 0, y: 0}
    - _LightGradient:
        m_Texture: {fileID: 2800000, guid: bde49b316487a4c61b70b807add703f9, type: 3}
        m_Scale: {x: 1, y: 1}
        m_Offset: {x: 0, y: 0}
    - _MainTex:
        m_Texture: {fileID: 0}
        m_Scale: {x: 1, y: 1}
        m_Offset: {x: 0, y: 0}
    - _MetallicGlossMap:
        m_Texture: {fileID: 0}
        m_Scale: {x: 1, y: 1}
        m_Offset: {x: 0, y: 0}
    - _NoiseTexture:
        m_Texture: {fileID: 2800000, guid: a82d0ce26215d4cb4907657997627e26, type: 3}
        m_Scale: {x: 1, y: 1}
        m_Offset: {x: 0, y: 0}
    - _OcclusionMap:
        m_Texture: {fileID: 0}
        m_Scale: {x: 1, y: 1}
        m_Offset: {x: 0, y: 0}
    - _ParallaxMap:
        m_Texture: {fileID: 0}
        m_Scale: {x: 1, y: 1}
        m_Offset: {x: 0, y: 0}
    - _texcoord:
        m_Texture: {fileID: 0}
        m_Scale: {x: 1, y: 1}
        m_Offset: {x: 0, y: 0}
    m_Floats:
    - _BumpScale: 1
    - _Cutoff: 0.5
    - _DarkFresnelPower: 0
    - _DarkFresnelScale: 0
    - _DetailNormalMapScale: 1
    - _DstBlend: 0
    - _FresnelPower: 0
    - _FresnelScale: 0
    - _GlossMapScale: 1
    - _Glossiness: 0.066
    - _GlossyReflections: 1
    - _Metallic: 0
    - _Mode: 0
    - _NoiseMultiplier: 0
    - _OcclusionStrength: 1
    - _Parallax: 0.02
    - _PointLightHardness: 0
    - _SmoothnessTextureChannel: 0
    - _SpecularHighlights: 1
    - _SrcBlend: 1
    - _UVSec: 0
    - _ZWrite: 1
    - __dirty: 0
    m_Colors:
    - _AlbedoColor: {r: 1, g: 1, b: 1, a: 0}
    - _Ambient: {r: 0, g: 0, b: 0, a: 0}
    - _AmbientColor: {r: 0, g: 0, b: 0, a: 0}
    - _Color: {r: 1, g: 0.19339621, b: 0.2222303, a: 1}
    - _DarkFresnelColor: {r: 1, g: 1, b: 1, a: 0}
    - _EmissionColor: {r: 0.5438748, g: 0.14562768, b: 0.16048764, a: 1}
    - _FresnelColor: {r: 1, g: 1, b: 1, a: 0}
    - _GIColor: {r: 0, g: 0, b: 0, a: 0}
