%YAML 1.1
%TAG !u! tag:unity3d.com,2011:
--- !u!21 &2100000
Material:
  serializedVersion: 6
  m_ObjectHideFlags: 0
  m_CorrespondingSourceObject: {fileID: 0}
  m_PrefabInstance: {fileID: 0}
  m_PrefabAsset: {fileID: 0}
  m_Name: Rock Boundaries
  m_Shader: {fileID: 4800000, guid: eb4087de5d3ff475f95c885c7bed76f1, type: 3}
  m_ShaderKeywords: _EMISSION
  m_LightmapFlags: 1
  m_EnableInstancingVariants: 1
  m_DoubleSidedGI: 0
  m_CustomRenderQueue: -1
  stringTagMap: {}
  disabledShaderPasses: []
  m_SavedProperties:
    serializedVersion: 3
    m_TexEnvs:
    - _Albedo:
        m_Texture: {fileID: 0}
        m_Scale: {x: 1, y: 1}
        m_Offset: {x: 0, y: 0}
    - _Albedo_0:
        m_Texture: {fileID: 0}
        m_Scale: {x: 1, y: 1}
        m_Offset: {x: 0, y: 0}
    - _Albedo_1:
        m_Texture: {fileID: 0}
        m_Scale: {x: 1, y: 1}
        m_Offset: {x: 0, y: 0}
    - _BumpMap:
        m_Texture: {fileID: 0}
        m_Scale: {x: 1, y: 1}
        m_Offset: {x: 0, y: 0}
    - _DetailAlbedoMap:
        m_Texture: {fileID: 0}
        m_Scale: {x: 1, y: 1}
        m_Offset: {x: 0, y: 0}
    - _DetailMask:
        m_Texture: {fileID: 0}
        m_Scale: {x: 1, y: 1}
        m_Offset: {x: 0, y: 0}
    - _DetailNormalMap:
        m_Texture: {fileID: 0}
        m_Scale: {x: 1, y: 1}
        m_Offset: {x: 0, y: 0}
    - _EmissionMap:
        m_Texture: {fileID: 0}
        m_Scale: {x: 1, y: 1}
        m_Offset: {x: 0, y: 0}
    - _LightGradient:
        m_Texture: {fileID: 2800000, guid: 932127183c4674faa9b71d798fb9ab3b, type: 3}
        m_Scale: {x: 1, y: 1}
        m_Offset: {x: 0, y: 0}
    - _MainTex:
        m_Texture: {fileID: 0}
        m_Scale: {x: 1, y: 1}
        m_Offset: {x: 0, y: 0}
    - _Mask:
        m_Texture: {fileID: 0}
        m_Scale: {x: 1, y: 1}
        m_Offset: {x: 0, y: 0}
    - _MetallicGlossMap:
        m_Texture: {fileID: 0}
        m_Scale: {x: 1, y: 1}
        m_Offset: {x: 0, y: 0}
    - _NoiseTexture:
        m_Texture: {fileID: 2800000, guid: 503b2eab1ece74a2b9e1f230c837e650, type: 3}
        m_Scale: {x: 1, y: 1}
        m_Offset: {x: 0, y: 0}
    - _Normal:
        m_Texture: {fileID: 0}
        m_Scale: {x: 1, y: 1}
        m_Offset: {x: 0, y: 0}
    - _Normal_0:
        m_Texture: {fileID: 0}
        m_Scale: {x: 1, y: 1}
        m_Offset: {x: 0, y: 0}
    - _Normal_1:
        m_Texture: {fileID: 0}
        m_Scale: {x: 1, y: 1}
        m_Offset: {x: 0, y: 0}
    - _OcclusionMap:
        m_Texture: {fileID: 0}
        m_Scale: {x: 1, y: 1}
        m_Offset: {x: 0, y: 0}
    - _ParallaxMap:
        m_Texture: {fileID: 0}
        m_Scale: {x: 1, y: 1}
        m_Offset: {x: 0, y: 0}
    - _TextureSample0:
        m_Texture: {fileID: 0}
        m_Scale: {x: 0.39, y: 0.11}
        m_Offset: {x: 0, y: 0}
    - _TopTexture0:
        m_Texture: {fileID: 2800000, guid: 89fad33e67f1b4c1ba8ddce968a383d5, type: 3}
        m_Scale: {x: 1, y: 1}
        m_Offset: {x: 0, y: 0}
    - _TopTexture1:
        m_Texture: {fileID: 2800000, guid: b4e1aa425ecf346489d8182168be43df, type: 3}
        m_Scale: {x: 1, y: 1}
        m_Offset: {x: 0, y: 0}
    - _texcoord:
        m_Texture: {fileID: 0}
        m_Scale: {x: 1, y: 1}
        m_Offset: {x: 0, y: 0}
    - _texcoord2:
        m_Texture: {fileID: 0}
        m_Scale: {x: 1, y: 1}
        m_Offset: {x: 0, y: 0}
    - unity_Lightmap:
        m_Texture: {fileID: 0}
        m_Scale: {x: 1, y: 1}
        m_Offset: {x: 0, y: 0}
    m_Floats:
    - _BlackClip: 0.254
    - _BumpScale: 1
    - _ClipBrightness: 1
    - _Cutoff: 0.5
    - _DarkFresnelPower: 8.9
    - _DarkFresnelScale: 0.66
    - _DetailNormalMapScale: 1
    - _DirectionalFalloff: 0.31
    - _Distance: 110.9
    - _DstBlend: 0
    - _FallOff: 3.56
    - _Float0: 0.47
    - _Float6: 0.12
    - _FresnelPower: 4.05
    - _FresnelScale: 5.86
    - _GlossMapScale: 1
    - _Glossiness: 0.066
    - _GlossyReflections: 1
    - _LightingGamma: 3.38
    - _Metallic: 0
    - _Mode: 0
    - _NoiseDistance: -0.276
    - _NoiseMultiplier: 1
    - _NoiseTiling: 0.08
    - _OcclusionStrength: 1
    - _Parallax: 0.02
    - _PointLightHardness: 0
    - _SmoothnessTextureChannel: 0
    - _Smoothness_0: 0
    - _Smoothness_1: 0
    - _SpecularHighlights: 1
    - _SrcBlend: 1
    - _TerrainSplatFalloff: 1
    - _Threshold: 0.772
    - _UVSec: 0
    - _WhiteClip: 0.604
    - _ZWrite: 1
    - __dirty: 0
    - _noisetiling: 7.15
    m_Colors:
    - _AlbedoColor: {r: 1, g: 1, b: 1, a: 0}
    - _AlbedoNoise0: {r: 1, g: 1, b: 1, a: 0}
    - _AlbedoNoise1: {r: 1, g: 1, b: 1, a: 0}
    - _AlbedoNoise2: {r: 1, g: 1, b: 1, a: 0}
    - _Ambient: {r: 0, g: 0, b: 0, a: 0}
    - _AmbientColor: {r: 0, g: 0, b: 0, a: 0}
    - _Color: {r: 0.3372549, g: 0.34005865, b: 0.34117648, a: 1}
    - _Color0: {r: 1, g: 1, b: 1, a: 0}
    - _Color1: {r: 0.16981131, g: 0.16981131, b: 0.16981131, a: 0}
    - _Color2: {r: 0.6886792, g: 0.6886792, b: 0.6886792, a: 0}
    - _Color3: {r: 0.06607056, g: 0, b: 1, a: 0}
    - _DarkFresnelColor: {r: 0, g: 0, b: 0, a: 0}
    - _EmissionColor: {r: 0.20754719, g: 0.2026522, b: 0.2026522, a: 1}
    - _FresnelColor: {r: 0.5943396, g: 0.5943396, b: 0.5943396, a: 0}
    - _GIColor: {r: 1, g: 1, b: 1, a: 0}
    - _IntersectPosition: {r: 0, g: 0, b: 0, a: 0}
    - _TreeInstanceColor: {r: 1, g: 1, b: 1, a: 0}
