%YAML 1.1
%TAG !u! tag:unity3d.com,2011:
--- !u!21 &2100000
Material:
  serializedVersion: 6
  m_ObjectHideFlags: 0
  m_CorrespondingSourceObject: {fileID: 0}
  m_PrefabInstance: {fileID: 0}
  m_PrefabAsset: {fileID: 0}
  m_Name: Switch
  m_Shader: {fileID: 4800000, guid: a903d92031ba1404d9a01b75ad15fc5d, type: 3}
  m_ShaderKeywords: _EMISSION
  m_LightmapFlags: 1
  m_EnableInstancingVariants: 1
  m_DoubleSidedGI: 0
  m_CustomRenderQueue: -1
  stringTagMap: {}
  disabledShaderPasses: []
  m_SavedProperties:
    serializedVersion: 3
    m_TexEnvs:
    - _Albedo:
        m_Texture: {fileID: 2800000, guid: 36147f3bbaf3a47c7a0baa97bc51ba68, type: 3}
        m_Scale: {x: 1, y: 1}
        m_Offset: {x: 0, y: 0}
    - _Albedo_0:
        m_Texture: {fileID: 0}
        m_Scale: {x: 1, y: 1}
        m_Offset: {x: 0, y: 0}
    - _Albedo_1:
        m_Texture: {fileID: 0}
        m_Scale: {x: 1, y: 1}
        m_Offset: {x: 0, y: 0}
    - _BumpMap:
        m_Texture: {fileID: 0}
        m_Scale: {x: 1, y: 1}
        m_Offset: {x: 0, y: 0}
    - _DetailAlbedoMap:
        m_Texture: {fileID: 0}
        m_Scale: {x: 1, y: 1}
        m_Offset: {x: 0, y: 0}
    - _DetailMask:
        m_Texture: {fileID: 0}
        m_Scale: {x: 1, y: 1}
        m_Offset: {x: 0, y: 0}
    - _DetailNormalMap:
        m_Texture: {fileID: 0}
        m_Scale: {x: 1, y: 1}
        m_Offset: {x: 0, y: 0}
    - _EmissionMap:
        m_Texture: {fileID: 0}
        m_Scale: {x: 1, y: 1}
        m_Offset: {x: 0, y: 0}
    - _LightGradient:
        m_Texture: {fileID: 2800000, guid: 932127183c4674faa9b71d798fb9ab3b, type: 3}
        m_Scale: {x: 1, y: 1}
        m_Offset: {x: 0, y: 0}
    - _MainTex:
        m_Texture: {fileID: 0}
        m_Scale: {x: 1, y: 1}
        m_Offset: {x: 0, y: 0}
    - _Mask:
        m_Texture: {fileID: 0}
        m_Scale: {x: 1, y: 1}
        m_Offset: {x: 0, y: 0}
    - _MetallicGlossMap:
        m_Texture: {fileID: 0}
        m_Scale: {x: 1, y: 1}
        m_Offset: {x: 0, y: 0}
    - _NoiseTexture:
        m_Texture: {fileID: 2800000, guid: 89fad33e67f1b4c1ba8ddce968a383d5, type: 3}
        m_Scale: {x: 10, y: 10}
        m_Offset: {x: 0, y: 0}
    - _Normal:
        m_Texture: {fileID: 0}
        m_Scale: {x: 1, y: 1}
        m_Offset: {x: 0, y: 0}
    - _Normal_0:
        m_Texture: {fileID: 0}
        m_Scale: {x: 1, y: 1}
        m_Offset: {x: 0, y: 0}
    - _Normal_1:
        m_Texture: {fileID: 0}
        m_Scale: {x: 1, y: 1}
        m_Offset: {x: 0, y: 0}
    - _OcclusionMap:
        m_Texture: {fileID: 0}
        m_Scale: {x: 1, y: 1}
        m_Offset: {x: 0, y: 0}
    - _ParallaxMap:
        m_Texture: {fileID: 0}
        m_Scale: {x: 1, y: 1}
        m_Offset: {x: 0, y: 0}
    - _TextureSample0:
        m_Texture: {fileID: 2800000, guid: eea37f14714c74d5b9194d84f5a30162, type: 3}
        m_Scale: {x: 1, y: 1}
        m_Offset: {x: 0, y: 0}
    - _TopTexture0:
        m_Texture: {fileID: 2800000, guid: 89fad33e67f1b4c1ba8ddce968a383d5, type: 3}
        m_Scale: {x: 1, y: 1}
        m_Offset: {x: 0, y: 0}
    - _TopTexture1:
        m_Texture: {fileID: 2800000, guid: b4e1aa425ecf346489d8182168be43df, type: 3}
        m_Scale: {x: 1, y: 1}
        m_Offset: {x: 0, y: 0}
    - _texcoord:
        m_Texture: {fileID: 0}
        m_Scale: {x: 1, y: 1}
        m_Offset: {x: 0, y: 0}
    - _texcoord2:
        m_Texture: {fileID: 0}
        m_Scale: {x: 1, y: 1}
        m_Offset: {x: 0, y: 0}
    - unity_Lightmap:
        m_Texture: {fileID: 0}
        m_Scale: {x: 1, y: 1}
        m_Offset: {x: 0, y: 0}
    m_Floats:
    - _BumpScale: 1
    - _ClipBrightness: 1
    - _Cutoff: 0.5
    - _DarkFresnelPower: 1.88
    - _DarkFresnelScale: 0
    - _DetailNormalMapScale: 1
    - _DirectionalFalloff: 0.31
    - _Distance: 110.9
    - _DstBlend: 0
    - _FallOff: 3.56
    - _Float0: -0.276
    - _Float6: 0.12
    - _FresnelPower: 1.23
    - _FresnelScale: 0.3
    - _GlossMapScale: 1
    - _Glossiness: 0.066
    - _GlossyReflections: 1
    - _LightingGamma: 8.66
    - _Metallic: 0
    - _Mode: 0
    - _NoiseDistance: -0.276
    - _NoiseMultiplier: 0.4
    - _NoiseTiling: 0.3
    - _OcclusionStrength: 1
    - _Parallax: 0.02
    - _PointLightHardness: 0
    - _SmoothnessTextureChannel: 0
    - _Smoothness_0: 0
    - _Smoothness_1: 0
    - _SpecularHighlights: 1
    - _SrcBlend: 1
    - _TerrainSplatFalloff: 1
    - _Threshold: 0.772
    - _UVSec: 0
    - _ZWrite: 1
    - __dirty: 0
    - _noisetiling: 7.15
    m_Colors:
    - _AlbedoColor: {r: 1, g: 1, b: 1, a: 0}
    - _Ambient: {r: 0.047169805, g: 0.047169805, b: 0.047169805, a: 0}
    - _Color: {r: 0.3372549, g: 0.34005865, b: 0.34117648, a: 1}
    - _Color0: {r: 1, g: 1, b: 1, a: 0}
    - _Color1: {r: 0.8584906, g: 0.6600659, b: 0.6600659, a: 0}
    - _Color2: {r: 1, g: 1, b: 1, a: 0}
    - _Color3: {r: 0, g: 0.6405931, b: 1, a: 0}
    - _DarkFresnelColor: {r: 0.21626917, g: 0.35601693, b: 0.5660378, a: 0}
    - _EmissionColor: {r: 0.20754719, g: 0.2026522, b: 0.2026522, a: 1}
    - _FresnelColor: {r: 1, g: 1, b: 1, a: 0}
    - _GIColor: {r: 0.43396202, g: 0.23097149, b: 0.088020466, a: 0}
    - _IntersectPosition: {r: 0, g: 0, b: 0, a: 0}
