{
    "MonoBehaviour": {
        "m_Enabled": true,
        "m_EditorHideFlags": 0,
        "m_Name": "",
        "m_EditorClassIdentifier": "Unity.Formats.Fbx.Editor:UnityEditor.Formats.Fbx.Exporter:ExportSettings",
        "Verbose": false,
        "launchAfterInstallation": true,
        "HideSendToUnityMenu": true,
        "BakeAnimation": true,
        "showConvertToPrefabDialog": true,
        "integrationSavePath": "/Users/freelancer",
        "selectedDCCApp": 0,
        "prefabSavePaths": [
            "Prefabs",
            "."
        ],
        "fbxSavePaths": [
            "Models",
            "."
        ],
        "selectedFbxPath": 0,
        "selectedPrefabPath": 0,
        "dccOptionNames": [
            "Maya 2019"
        ],
        "dccOptionPaths": [
            "/Applications/Autodesk/maya2019/Maya.app/Contents/MacOS/Maya"
        ],
        "exportModelSettingsSerialize": {
            "exportFormat": 0,
            "animatedSkinnedMesh": false,
            "mayaCompatibleNaming": true,
            "include": 0,
            "lodLevel": 0,
            "objectPosition": 1,
            "exportUnrendered": false
        },
        "convertToPrefabSettingsSerialize": {
            "exportFormat": 0,
            "animatedSkinnedMesh": false,
            "mayaCompatibleNaming": true
        }
    }
}