%YAML 1.1
%TAG !u! tag:unity3d.com,2011:
--- !u!114 &11400000
MonoBehaviour:
  m_ObjectHideFlags: 0
  m_CorrespondingSourceObject: {fileID: 0}
  m_PrefabInstance: {fileID: 0}
  m_PrefabAsset: {fileID: 0}
  m_GameObject: {fileID: 0}
  m_Enabled: 1
  m_EditorHideFlags: 0
  m_Script: {fileID: 11500000, guid: c9bc43e142692db4e92eef81e1903ca4, type: 3}
  m_Name: Waves02
  m_EditorClassIdentifier: 
  oldId: 0
  oldCount: 0
  guiScroll: {x: 46.831238, y: 336.0884}
  guiZoom: 0.96635056
  serializedVersion: 199
  classes:
  - "<MapMagic.Generator[] length=7>\n\t<item0 type=MapMagic.Generator link=1/>\n\t<item1
    type=MapMagic.Generator link=3/>\n\t<item2 type=MapMagic.Generator link=9/>\n\t<item3
    type=MapMagic.Generator link=24/>\n\t<item4 type=MapMagic.Generator link=19/>\n\t<item5
    type=MapMagic.Generator link=12/>\n\t<item6 type=MapMagic.Generator link=30/>\n</MapMagic.Generator[]>\n"
  - "<MapMagic.SimpleForm1>\n\t<output type=MapMagic.Generator+Output link=2/>\n\t<type
    type=MapMagic.SimpleForm1+FormType value=1/>\n\t<intensity type=System.Single
    value=1/>\n\t<scale type=System.Single value=0.02/>\n\t<offset type=UnityEngine.Vector2
    x=0 y=0/>\n\t<wrap type=MapMagic.Matrix+WrapMode value=2/>\n\t<enabled type=System.Boolean
    value=True/>\n\t<mandatory type=System.Boolean value=False/>\n\t<guiRect type=UnityEngine.Rect
    x=43.22107 y=-33.03572 width=160 height=136/>\n</MapMagic.SimpleForm1>\n"
  - "<MapMagic.Generator+Output>\n\t<type type=MapMagic.Generator+InoutType value=0/>\n\t<guiRect
    type=UnityEngine.Rect x=190.2211 y=-13.03572 width=18 height=18/>\n</MapMagic.Generator+Output>\n"
  - "<MapMagic.CurveGenerator>\n\t<curve type=UnityEngine.AnimationCurve link=4/>\n\t<extended
    type=System.Boolean value=True/>\n\t<min type=UnityEngine.Vector2 x=0 y=0/>\n\t<max
    type=UnityEngine.Vector2 x=1 y=1/>\n\t<input type=MapMagic.Generator+Input link=6/>\n\t<maskIn
    type=MapMagic.Generator+Input link=7/>\n\t<output type=MapMagic.Generator+Output
    link=8/>\n\t<enabled type=System.Boolean value=True/>\n\t<mandatory type=System.Boolean
    value=False/>\n\t<guiRect type=UnityEngine.Rect x=267.9091 y=-29.15745 width=160
    height=120/>\n</MapMagic.CurveGenerator>\n"
  - "<UnityEngine.AnimationCurve>\n\t<keys type=UnityEngine.Keyframe[] link=5/>\n\t<preWrapMode
    type=UnityEngine.WrapMode value=8/>\n\t<postWrapMode type=UnityEngine.WrapMode
    value=8/>\n</UnityEngine.AnimationCurve>\n"
  - "<UnityEngine.Keyframe[] length=3>\n\t<item0 type=UnityEngine.Keyframe time=0
    value=0 in=-0.001688301 out=-0.001688301 mode=0 inWeight=0 outWeight=0.9889656/>\n\t<item1
    type=UnityEngine.Keyframe time=0.5018273 value=0.1328827 in=0.008218121 out=0.008218121
    mode=0 inWeight=0.3333333 outWeight=0.2475478/>\n\t<item2 type=UnityEngine.Keyframe
    time=1 value=0 in=-0.00299249 out=-0.00299249 mode=0 inWeight=0.7128494 outWeight=0/>\n</UnityEngine.Keyframe[]>\n"
  - "<MapMagic.Generator+Input>\n\t<type type=MapMagic.Generator+InoutType value=0/>\n\t<link
    type=MapMagic.Generator+Output link=2/>\n\t<linkGen type=MapMagic.Generator link=1/>\n\t<guiRect
    type=UnityEngine.Rect x=262.9091 y=-9.15745 width=18 height=18/>\n</MapMagic.Generator+Input>\n"
  - "<MapMagic.Generator+Input>\n\t<type type=MapMagic.Generator+InoutType value=0/>\n\t<link
    type=MapMagic.Generator+Output null/>\n\t<linkGen type=MapMagic.Generator null/>\n\t<guiRect
    type=UnityEngine.Rect x=262.9091 y=10.84255 width=18 height=18/>\n</MapMagic.Generator+Input>\n"
  - "<MapMagic.Generator+Output>\n\t<type type=MapMagic.Generator+InoutType value=0/>\n\t<guiRect
    type=UnityEngine.Rect x=414.9091 y=-9.15745 width=18 height=18/>\n</MapMagic.Generator+Output>\n"
  - "<MapMagic.HeightOutput>\n\t<input type=MapMagic.Generator+Input link=10/>\n\t<output
    type=MapMagic.Generator+Output link=29/>\n\t<scale type=System.Int32 value=1/>\n\t<enabled
    type=System.Boolean value=True/>\n\t<mandatory type=System.Boolean value=False/>\n\t<guiRect
    type=UnityEngine.Rect x=946.0766 y=5.826098 width=160 height=64/>\n\t<layer type=System.Single
    value=0/>\n</MapMagic.HeightOutput>\n"
  - "<MapMagic.Generator+Input>\n\t<type type=MapMagic.Generator+InoutType value=0/>\n\t<link
    type=MapMagic.Generator+Output link=11/>\n\t<linkGen type=MapMagic.Generator link=12/>\n\t<guiRect
    type=UnityEngine.Rect x=941.0766 y=25.8261 width=18 height=18/>\n</MapMagic.Generator+Input>\n"
  - "<MapMagic.Generator+Output>\n\t<type type=MapMagic.Generator+InoutType value=0/>\n\t<guiRect
    type=UnityEngine.Rect x=726.6745 y=137.1915 width=18 height=18/>\n</MapMagic.Generator+Output>\n"
  - "<MapMagic.BlendGenerator2>\n\t<layers type=MapMagic.BlendGenerator2+Layer[] link=13/>\n\t<guiSelected
    type=System.Int32 value=2/>\n\t<maskInput type=MapMagic.Generator+Input link=28/>\n\t<output
    type=MapMagic.Generator+Output link=11/>\n\t<inputsNum type=System.Int32 value=2/>\n\t<enabled
    type=System.Boolean value=True/>\n\t<mandatory type=System.Boolean value=False/>\n\t<guiRect
    type=UnityEngine.Rect x=579.6745 y=117.1915 width=160 height=145/>\n</MapMagic.BlendGenerator2>\n"
  - "<MapMagic.BlendGenerator2+Layer[] length=3>\n\t<item0 type=MapMagic.BlendGenerator2+Layer
    link=14/>\n\t<item1 type=MapMagic.BlendGenerator2+Layer link=16/>\n\t<item2 type=MapMagic.BlendGenerator2+Layer
    link=26/>\n</MapMagic.BlendGenerator2+Layer[]>\n"
  - "<MapMagic.BlendGenerator2+Layer>\n\t<input type=MapMagic.Generator+Input link=15/>\n\t<algorithm
    type=MapMagic.BlendGenerator2+Algorithm value=1/>\n\t<opacity type=System.Single
    value=1/>\n</MapMagic.BlendGenerator2+Layer>\n"
  - "<MapMagic.Generator+Input>\n\t<type type=MapMagic.Generator+InoutType value=0/>\n\t<link
    type=MapMagic.Generator+Output null/>\n\t<linkGen type=MapMagic.Generator null/>\n\t<guiRect
    type=UnityEngine.Rect x=574.6745 y=238.1915 width=18 height=18/>\n</MapMagic.Generator+Input>\n"
  - "<MapMagic.BlendGenerator2+Layer>\n\t<input type=MapMagic.Generator+Input link=17/>\n\t<algorithm
    type=MapMagic.BlendGenerator2+Algorithm value=1/>\n\t<opacity type=System.Single
    value=1/>\n</MapMagic.BlendGenerator2+Layer>\n"
  - "<MapMagic.Generator+Input>\n\t<type type=MapMagic.Generator+InoutType value=0/>\n\t<link
    type=MapMagic.Generator+Output link=18/>\n\t<linkGen type=MapMagic.Generator link=19/>\n\t<guiRect
    type=UnityEngine.Rect x=574.6745 y=212.1915 width=18 height=18/>\n</MapMagic.Generator+Input>\n"
  - "<MapMagic.Generator+Output>\n\t<type type=MapMagic.Generator+InoutType value=0/>\n\t<guiRect
    type=UnityEngine.Rect x=414.9091 y=120.8426 width=18 height=18/>\n</MapMagic.Generator+Output>\n"
  - "<MapMagic.CurveGenerator>\n\t<curve type=UnityEngine.AnimationCurve link=20/>\n\t<extended
    type=System.Boolean value=True/>\n\t<min type=UnityEngine.Vector2 x=0 y=0/>\n\t<max
    type=UnityEngine.Vector2 x=1 y=1/>\n\t<input type=MapMagic.Generator+Input link=22/>\n\t<maskIn
    type=MapMagic.Generator+Input link=25/>\n\t<output type=MapMagic.Generator+Output
    link=18/>\n\t<enabled type=System.Boolean value=True/>\n\t<mandatory type=System.Boolean
    value=False/>\n\t<guiRect type=UnityEngine.Rect x=267.9091 y=100.8426 width=160
    height=120/>\n</MapMagic.CurveGenerator>\n"
  - "<UnityEngine.AnimationCurve>\n\t<keys type=UnityEngine.Keyframe[] link=21/>\n\t<preWrapMode
    type=UnityEngine.WrapMode value=8/>\n\t<postWrapMode type=UnityEngine.WrapMode
    value=8/>\n</UnityEngine.AnimationCurve>\n"
  - "<UnityEngine.Keyframe[] length=3>\n\t<item0 type=UnityEngine.Keyframe time=0
    value=0 in=-0.001688301 out=-0.001688301 mode=0 inWeight=0 outWeight=0.9889656/>\n\t<item1
    type=UnityEngine.Keyframe time=0.4944236 value=0.04524351 in=0.001743673 out=0.001743673
    mode=0 inWeight=0.157688 outWeight=0.2475478/>\n\t<item2 type=UnityEngine.Keyframe
    time=1 value=0 in=-0.00299249 out=-0.00299249 mode=0 inWeight=0.7128494 outWeight=0/>\n</UnityEngine.Keyframe[]>\n"
  - "<MapMagic.Generator+Input>\n\t<type type=MapMagic.Generator+InoutType value=0/>\n\t<link
    type=MapMagic.Generator+Output link=23/>\n\t<linkGen type=MapMagic.Generator link=24/>\n\t<guiRect
    type=UnityEngine.Rect x=262.9091 y=120.8426 width=18 height=18/>\n</MapMagic.Generator+Input>\n"
  - "<MapMagic.Generator+Output>\n\t<type type=MapMagic.Generator+InoutType value=0/>\n\t<guiRect
    type=UnityEngine.Rect x=190.2211 y=132.9643 width=18 height=18/>\n</MapMagic.Generator+Output>\n"
  - "<MapMagic.SimpleForm1>\n\t<output type=MapMagic.Generator+Output link=23/>\n\t<type
    type=MapMagic.SimpleForm1+FormType value=1/>\n\t<intensity type=System.Single
    value=1/>\n\t<scale type=System.Single value=0.3/>\n\t<offset type=UnityEngine.Vector2
    x=0 y=0/>\n\t<wrap type=MapMagic.Matrix+WrapMode value=2/>\n\t<enabled type=System.Boolean
    value=True/>\n\t<mandatory type=System.Boolean value=False/>\n\t<guiRect type=UnityEngine.Rect
    x=43.22107 y=112.9643 width=160 height=136/>\n</MapMagic.SimpleForm1>\n"
  - "<MapMagic.Generator+Input>\n\t<type type=MapMagic.Generator+InoutType value=0/>\n\t<link
    type=MapMagic.Generator+Output null/>\n\t<linkGen type=MapMagic.Generator null/>\n\t<guiRect
    type=UnityEngine.Rect x=262.9091 y=140.8426 width=18 height=18/>\n</MapMagic.Generator+Input>\n"
  - "<MapMagic.BlendGenerator2+Layer>\n\t<input type=MapMagic.Generator+Input link=27/>\n\t<algorithm
    type=MapMagic.BlendGenerator2+Algorithm value=8/>\n\t<opacity type=System.Single
    value=1/>\n</MapMagic.BlendGenerator2+Layer>\n"
  - "<MapMagic.Generator+Input>\n\t<type type=MapMagic.Generator+InoutType value=0/>\n\t<link
    type=MapMagic.Generator+Output link=8/>\n\t<linkGen type=MapMagic.Generator link=3/>\n\t<guiRect
    type=UnityEngine.Rect x=574.6745 y=186.1915 width=18 height=18/>\n</MapMagic.Generator+Input>\n"
  - "<MapMagic.Generator+Input>\n\t<type type=MapMagic.Generator+InoutType value=0/>\n\t<link
    type=MapMagic.Generator+Output null/>\n\t<linkGen type=MapMagic.Generator null/>\n\t<guiRect
    type=UnityEngine.Rect x=574.6745 y=137.1915 width=18 height=18/>\n</MapMagic.Generator+Input>\n"
  - "<MapMagic.Generator+Output>\n\t<type type=MapMagic.Generator+InoutType value=0/>\n\t<guiRect
    type=UnityEngine.Rect x=192.4768 y=6.208928 width=0 height=0/>\n</MapMagic.Generator+Output>\n"
  - "<MapMagic.Biome>\n\t<mask type=MapMagic.Generator+Input link=31/>\n\t<data type=MapMagic.GeneratorsAsset
    null/>\n\t<enabled type=System.Boolean value=True/>\n\t<mandatory type=System.Boolean
    value=False/>\n\t<guiRect type=UnityEngine.Rect x=644.8682 y=-135.3048 width=160
    height=146/>\n</MapMagic.Biome>\n"
  - "<MapMagic.Generator+Input>\n\t<type type=MapMagic.Generator+InoutType value=0/>\n\t<link
    type=MapMagic.Generator+Output null/>\n\t<linkGen type=MapMagic.Generator null/>\n\t<guiRect
    type=UnityEngine.Rect x=639.8682 y=-115.3048 width=18 height=18/>\n</MapMagic.Generator+Input>\n"
  objects: []
  floats: []
  setDirty: 1
  serializer:
    entities: []
  listNum: 0
