%YAML 1.1
%TAG !u! tag:unity3d.com,2011:
--- !u!114 &11400000
MonoBehaviour:
  m_ObjectHideFlags: 0
  m_CorrespondingSourceObject: {fileID: 0}
  m_PrefabInstance: {fileID: 0}
  m_PrefabAsset: {fileID: 0}
  m_GameObject: {fileID: 0}
  m_Enabled: 1
  m_EditorHideFlags: 0
  m_Script: {fileID: 11500000, guid: 78b2425a2284af743826c689403a4924, type: 3}
  m_Name: Four Splats First Pass Terrain
  m_EditorClassIdentifier: 
  m_functionInfo: "// Made with Amplify Shader Editor\n// Available at the Unity Asset
    Store - http://u3d.as/y3X \n/*ASEBEGIN\nVersion=17000\n89;607;1552;681;3757.879;383.6354;3.171848;True;True\nNode;AmplifyShaderEditor.CommentaryNode;65;-1778.84,-1982.8;Float;False;1796.164;1789.144;;24;60;28;9;41;44;33;32;6;34;37;30;39;31;29;4;40;35;43;42;7;38;36;3;0;Albedo;1,1,1,1;0;0\nNode;AmplifyShaderEditor.CommentaryNode;64;-1838.406,612.7104;Float;False;1582.024;883.2601;;12;11;73;71;72;10;1;70;14;12;8;2;61;Normal;1,1,1,1;0;0\nNode;AmplifyShaderEditor.CommentaryNode;63;-2707.89,-60.62326;Float;False;1541.744;509.7666;Comment;10;21;20;59;22;26;23;24;5;25;74;Control;1,1,1,1;0;0\nNode;AmplifyShaderEditor.CommentaryNode;66;-75.88382,1489.471;Float;False;1257.518;515.4562;;9;56;57;50;48;49;53;54;55;51;Metallic;1,1,1,1;0;0\nNode;AmplifyShaderEditor.CommentaryNode;69;-84.57178,789.2581;Float;False;1026.953;190.4067;;4;45;58;47;46;Smoothness;1,1,1,1;0;0\nNode;AmplifyShaderEditor.CommentaryNode;68;-84.15448,1030.644;Float;False;1134.33;398.6418;Comment;8;17;77;80;75;78;16;76;81;Tangents;1,1,1,1;0;0\nNode;AmplifyShaderEditor.CommentaryNode;67;-76.81078,419.6177;Float;False;686.1986;184.0211;;3;27;19;62;Alpha;1,1,1,1;0;0\nNode;AmplifyShaderEditor.TextureCoordinatesNode;70;-1808,688;Float;False;0;4;2;3;2;SAMPLER2D;;False;0;FLOAT2;1,1;False;1;FLOAT2;0,0;False;5;FLOAT2;0;FLOAT;1;FLOAT;2;FLOAT;3;FLOAT;4\nNode;AmplifyShaderEditor.RegisterLocalVarNode;28;-629.0479,-660.6064;Float;False;MixDiffuse;-1;True;1;0;FLOAT4;0,0,0,0;False;1;FLOAT4;0\nNode;AmplifyShaderEditor.RangedFloatNode;37;-1553.258,-1504.617;Float;False;Constant;_Float2;Float
    2;13;0;Create;True;0;0;False;0;1;0;0;0;0;1;FLOAT;0\nNode;AmplifyShaderEditor.FunctionInput;61;-637.6442,821.6487;Float;False;Custom
    Normal;3;2;False;1;0;FLOAT3;0,0,0;False;1;FLOAT3;0\nNode;AmplifyShaderEditor.FunctionInput;58;447.5828,854.8762;Float;False;Custom
    Smoothness;1;4;False;1;0;FLOAT;0;False;1;FLOAT;0\nNode;AmplifyShaderEditor.TextureCoordinatesNode;73;-1808,1312;Float;False;0;7;2;3;2;SAMPLER2D;;False;0;FLOAT2;1,1;False;1;FLOAT2;0,0;False;5;FLOAT2;0;FLOAT;1;FLOAT;2;FLOAT;3;FLOAT;4\nNode;AmplifyShaderEditor.TextureCoordinatesNode;72;-1808,1072;Float;False;0;6;2;3;2;SAMPLER2D;;False;0;FLOAT2;1,1;False;1;FLOAT2;0,0;False;5;FLOAT2;0;FLOAT;1;FLOAT;2;FLOAT;3;FLOAT;4\nNode;AmplifyShaderEditor.GetLocalVarNode;46;-34.57174,839.2581;Float;False;28;MixDiffuse;1;0;OBJECT;0;False;1;FLOAT4;0\nNode;AmplifyShaderEditor.RangedFloatNode;29;-1728.84,-1854.911;Float;False;Property;_Smoothness0;Smoothness0;11;1;[HideInInspector];Create;True;0;0;False;0;1;0;0;1;0;1;FLOAT;0\nNode;AmplifyShaderEditor.RangedFloatNode;25;-2144,256;Float;False;Constant;_Float0;Float
    0;9;0;Create;True;0;0;False;0;0.001;0;0;0;0;1;FLOAT;0\nNode;AmplifyShaderEditor.DotProductOpNode;20;-2392.622,167.361;Float;False;2;0;COLOR;0,0,0,0;False;1;FLOAT4;0,0,0,0;False;1;FLOAT;0\nNode;AmplifyShaderEditor.SwizzleNode;47;177.4824,840.8884;Float;False;FLOAT;3;1;2;3;1;0;FLOAT4;0,0,0,0;False;1;FLOAT;0\nNode;AmplifyShaderEditor.SimpleDivideOpNode;23;-1712,16;Float;False;2;0;COLOR;0,0,0,0;False;1;FLOAT;0;False;1;COLOR;0\nNode;AmplifyShaderEditor.SamplerNode;10;-1568,1072;Float;True;Property;_Normal2;Normal2;7;1;[HideInInspector];Create;True;0;0;False;0;None;None;True;0;False;white;Auto;False;Object;-1;Auto;Texture2D;6;0;SAMPLER2D;;False;1;FLOAT2;0,0;False;2;FLOAT;0;False;3;FLOAT2;0,0;False;4;FLOAT2;0,0;False;5;FLOAT;1;False;5;COLOR;0;FLOAT;1;FLOAT;2;FLOAT;3;FLOAT;4\nNode;AmplifyShaderEditor.RegisterLocalVarNode;26;-1568,16;Float;False;SplatControl;-1;True;1;0;COLOR;0,0,0,0;False;1;COLOR;0\nNode;AmplifyShaderEditor.RangedFloatNode;49;-24.21591,1708.193;Float;False;Property;_Metallic1;Metallic1;16;2;[HideInInspector];[Gamma];Create;True;0;0;False;0;0;0;0;1;0;1;FLOAT;0\nNode;AmplifyShaderEditor.FunctionInput;57;647.6302,1617.727;Float;False;Custom
    Metallic;1;3;False;1;0;FLOAT;0;False;1;FLOAT;0\nNode;AmplifyShaderEditor.SamplerNode;1;-1568,864;Float;True;Property;_Normal1;Normal1;6;1;[HideInInspector];Create;True;0;0;False;0;None;None;True;0;False;white;Auto;False;Object;-1;Auto;Texture2D;6;0;SAMPLER2D;;False;1;FLOAT2;0,0;False;2;FLOAT;0;False;3;FLOAT2;0,0;False;4;FLOAT2;0,0;False;5;FLOAT;1;False;5;COLOR;0;FLOAT;1;FLOAT;2;FLOAT;3;FLOAT;4\nNode;AmplifyShaderEditor.FunctionSwitchByPipeline;75;647.9054,1106.737;Float;False;4;0;FLOAT;0;False;3;FLOAT3;0,0,0;False;1;FLOAT3;0,0,0;False;2;FLOAT3;0,0,0;False;1;FLOAT3;0\nNode;AmplifyShaderEditor.SimpleMultiplyOpNode;78;152.2551,1153.509;Float;False;3;3;0;FLOAT3;0,0,0;False;1;FLOAT3;0,0,0;False;2;FLOAT;0;False;1;FLOAT3;0\nNode;AmplifyShaderEditor.FunctionInput;59;-1356.444,20.82132;Float;False;Custom
    Control;4;0;False;1;0;FLOAT4;0,0,0,0;False;1;FLOAT4;0\nNode;AmplifyShaderEditor.RegisterLocalVarNode;22;-2261.105,164.0728;Float;False;SplatWeight;-1;True;1;0;FLOAT;0;False;1;FLOAT;0\nNode;AmplifyShaderEditor.TangentVertexDataNode;77;-72.23888,1072.639;Float;False;0;0;5;FLOAT3;0;FLOAT;1;FLOAT;2;FLOAT;3;FLOAT;4\nNode;AmplifyShaderEditor.Vector4Node;21;-2689.97,184.6759;Float;False;Constant;_Vector0;Vector
    0;9;0;Create;True;0;0;False;0;1,1,1,1;0,0,0,0;0;5;FLOAT4;0;FLOAT;1;FLOAT;2;FLOAT;3;FLOAT;4\nNode;AmplifyShaderEditor.RangedFloatNode;80;-45.98957,1349.331;Float;False;Constant;_Float5;Float
    5;17;0;Create;True;0;0;False;0;0;0;0;0;0;1;FLOAT;0\nNode;AmplifyShaderEditor.NormalVertexDataNode;81;-66.2998,1212.924;Float;False;0;5;FLOAT3;0;FLOAT;1;FLOAT;2;FLOAT;3;FLOAT;4\nNode;AmplifyShaderEditor.RangedFloatNode;50;-19.21585,1806.193;Float;False;Property;_Metallic2;Metallic2;14;2;[HideInInspector];[Gamma];Create;True;0;0;False;0;0;0;0;1;0;1;FLOAT;0\nNode;AmplifyShaderEditor.RangedFloatNode;51;-8.215824,1904.193;Float;False;Property;_Metallic3;Metallic3;15;2;[HideInInspector];[Gamma];Create;True;0;0;False;0;0;0;0;1;0;1;FLOAT;0\nNode;AmplifyShaderEditor.GetLocalVarNode;54;234.9312,1539.471;Float;False;26;SplatControl;1;0;OBJECT;0;False;1;COLOR;0\nNode;AmplifyShaderEditor.DotProductOpNode;53;506.9309,1630.471;Float;False;2;0;COLOR;0,0,0,0;False;1;FLOAT4;0,0,0,0;False;1;FLOAT;0\nNode;AmplifyShaderEditor.RangedFloatNode;48;-25.88388,1619.345;Float;False;Property;_Metallic0;Metallic0;13;2;[HideInInspector];[Gamma];Create;True;0;0;False;0;0;0;0;1;0;1;FLOAT;0\nNode;AmplifyShaderEditor.DynamicAppendNode;55;333.931,1727.471;Float;False;FLOAT4;4;0;FLOAT;0;False;1;FLOAT;0;False;2;FLOAT;0;False;3;FLOAT;0;False;1;FLOAT4;0\nNode;AmplifyShaderEditor.RangedFloatNode;40;-1595.099,-1079.418;Float;False;Constant;_Float3;Float
    3;13;0;Create;True;0;0;False;0;1;0;0;0;0;1;FLOAT;0\nNode;AmplifyShaderEditor.SimpleAddOpNode;24;-1836.506,177.3755;Float;False;2;2;0;FLOAT;0;False;1;FLOAT;0;False;1;FLOAT;0\nNode;AmplifyShaderEditor.SamplerNode;5;-2698.008,-13.10038;Float;True;Property;_Control;Control;0;1;[HideInInspector];Create;True;0;0;False;0;None;None;True;0;False;white;Auto;False;Object;-1;Auto;Texture2D;6;0;SAMPLER2D;;False;1;FLOAT2;0,0;False;2;FLOAT;0;False;3;FLOAT2;0,0;False;4;FLOAT2;0,0;False;5;FLOAT;1;False;5;COLOR;0;FLOAT;1;FLOAT;2;FLOAT;3;FLOAT;4\nNode;AmplifyShaderEditor.RangedFloatNode;32;-1705.907,-528.7023;Float;False;Property;_Smoothness3;Smoothness3;9;1;[HideInInspector];Create;True;0;0;False;0;1;0;0;1;0;1;FLOAT;0\nNode;AmplifyShaderEditor.SimpleMultiplyOpNode;35;-1204.12,-1877.288;Float;False;2;2;0;FLOAT4;0,0,0,0;False;1;COLOR;0,0,0,0;False;1;FLOAT4;0\nNode;AmplifyShaderEditor.SamplerNode;4;-1571.735,-1779.668;Float;True;Property;_Splat0;Splat0;4;1;[HideInInspector];Create;True;0;0;False;0;None;None;True;0;False;white;Auto;False;Object;-1;Auto;Texture2D;6;0;SAMPLER2D;;False;1;FLOAT2;0,0;False;2;FLOAT;0;False;3;FLOAT2;0,0;False;4;FLOAT2;0,0;False;5;FLOAT;1;False;5;COLOR;0;FLOAT;1;FLOAT;2;FLOAT;3;FLOAT;4\nNode;AmplifyShaderEditor.DynamicAppendNode;36;-1399.088,-1520.375;Float;False;FLOAT4;4;0;FLOAT;0;False;1;FLOAT;0;False;2;FLOAT;0;False;3;FLOAT;0;False;1;FLOAT4;0\nNode;AmplifyShaderEditor.SimpleMultiplyOpNode;38;-1208.126,-1416.042;Float;False;2;2;0;FLOAT4;0,0,0,0;False;1;COLOR;0,0,0,0;False;1;FLOAT4;0\nNode;AmplifyShaderEditor.FunctionInput;60;-369.0532,-738.7761;Float;False;Custom
    Albedo;4;1;False;1;0;FLOAT4;0,0,0,0;False;1;FLOAT4;0\nNode;AmplifyShaderEditor.SamplerNode;7;-1563.881,-422.9568;Float;True;Property;_Splat3;Splat3;1;1;[HideInInspector];Create;True;0;0;False;0;None;None;True;0;False;white;Auto;False;Object;-1;Auto;Texture2D;6;0;SAMPLER2D;;False;1;FLOAT2;0,0;False;2;FLOAT;0;False;3;FLOAT2;0,0;False;4;FLOAT2;0,0;False;5;FLOAT;1;False;5;COLOR;0;FLOAT;1;FLOAT;2;FLOAT;3;FLOAT;4\nNode;AmplifyShaderEditor.SamplerNode;6;-1575.096,-907.3033;Float;True;Property;_Splat2;Splat2;2;1;[HideInInspector];Create;True;0;0;False;0;None;None;True;0;False;white;Auto;False;Object;-1;Auto;Texture2D;6;0;SAMPLER2D;;False;1;FLOAT2;0,0;False;2;FLOAT;0;False;3;FLOAT2;0,0;False;4;FLOAT2;0,0;False;5;FLOAT;1;False;5;COLOR;0;FLOAT;1;FLOAT;2;FLOAT;3;FLOAT;4\nNode;AmplifyShaderEditor.SummedBlendNode;8;-1106.425,902.7103;Float;False;5;0;FLOAT4;0,0,0,0;False;1;COLOR;0,0,0,0;False;2;COLOR;0,0,0,0;False;3;COLOR;0,0,0,0;False;4;COLOR;0,0,0,0;False;1;COLOR;0\nNode;AmplifyShaderEditor.RangedFloatNode;43;-1591.952,-656.6342;Float;False;Constant;_Float4;Float
    4;13;0;Create;True;0;0;False;0;1;0;0;0;0;1;FLOAT;0\nNode;AmplifyShaderEditor.RangedFloatNode;31;-1704.334,-987.735;Float;False;Property;_Smoothness2;Smoothness2;12;1;[HideInInspector];Create;True;0;0;False;0;1;0;0;1;0;1;FLOAT;0\nNode;AmplifyShaderEditor.DynamicAppendNode;33;-1437.993,-1929.072;Float;False;FLOAT4;4;0;FLOAT;1;False;1;FLOAT;1;False;2;FLOAT;1;False;3;FLOAT;0;False;1;FLOAT4;0\nNode;AmplifyShaderEditor.SamplerNode;11;-1568,1280;Float;True;Property;_Normal3;Normal3;8;1;[HideInInspector];Create;True;0;0;False;0;None;None;True;0;False;white;Auto;False;Object;-1;Auto;Texture2D;6;0;SAMPLER2D;;False;1;FLOAT2;0,0;False;2;FLOAT;0;False;3;FLOAT2;0,0;False;4;FLOAT2;0,0;False;5;FLOAT;1;False;5;COLOR;0;FLOAT;1;FLOAT;2;FLOAT;3;FLOAT;4\nNode;AmplifyShaderEditor.RangedFloatNode;30;-1677.401,-1423.224;Float;False;Property;_Smoothness1;Smoothness1;10;1;[HideInInspector];Create;True;0;0;False;0;1;0;0;1;0;1;FLOAT;0\nNode;AmplifyShaderEditor.RangedFloatNode;34;-1585.608,-1932.8;Float;False;Constant;_Float1;Float
    1;13;0;Create;True;0;0;False;0;1;0;0;0;0;1;FLOAT;0\nNode;AmplifyShaderEditor.SimpleMultiplyOpNode;41;-1260.513,-932.1429;Float;False;2;2;0;FLOAT4;0,0,0,0;False;1;COLOR;0,0,0,0;False;1;FLOAT4;0\nNode;AmplifyShaderEditor.FunctionInput;62;235.3716,471.4964;Float;False;Custom
    Alpha;1;5;False;1;0;FLOAT;0;False;1;FLOAT;0\nNode;AmplifyShaderEditor.SamplerNode;3;-1584.171,-1329.939;Float;True;Property;_Splat1;Splat1;3;1;[HideInInspector];Create;True;0;0;False;0;None;None;True;0;False;white;Auto;False;Object;-1;Auto;Texture2D;6;0;SAMPLER2D;;False;1;FLOAT2;0,0;False;2;FLOAT;0;False;3;FLOAT2;0,0;False;4;FLOAT2;0,0;False;5;FLOAT;1;False;5;COLOR;0;FLOAT;1;FLOAT;2;FLOAT;3;FLOAT;4\nNode;AmplifyShaderEditor.CustomExpressionNode;76;346.3839,1191.393;Float;False;v.ase_tangent.xyz
    = cross ( v.ase_normal, float3( 0, 0, 1 ) )@$v.ase_tangent.w = -1@;1;True;0;CalculateTangentsSRP;True;False;0;1;0;FLOAT3;0,0,0;False;1;FLOAT3;0\nNode;AmplifyShaderEditor.SummedBlendNode;9;-835.2949,-654.9649;Float;False;5;0;FLOAT4;0,0,0,0;False;1;FLOAT4;0,0,0,0;False;2;FLOAT4;0,0,0,0;False;3;FLOAT4;0,0,0,0;False;4;FLOAT4;0,0,0,0;False;1;FLOAT4;0\nNode;AmplifyShaderEditor.CustomExpressionNode;16;395.9061,1093.737;Float;False;v.tangent.xyz
    = cross ( v.normal, float3( 0, 0, 1 ) )@$v.tangent.w = -1@;1;True;0;CalculateTangentsStandard;True;False;0;1;0;FLOAT;0;False;1;FLOAT;0\nNode;AmplifyShaderEditor.TextureCoordinatesNode;71;-1808,880;Float;False;0;3;2;3;2;SAMPLER2D;;False;0;FLOAT2;1,1;False;1;FLOAT2;0,0;False;5;FLOAT2;0;FLOAT;1;FLOAT;2;FLOAT;3;FLOAT;4\nNode;AmplifyShaderEditor.DynamicAppendNode;42;-1414.952,-615.6342;Float;False;FLOAT4;4;0;FLOAT;0;False;1;FLOAT;0;False;2;FLOAT;0;False;3;FLOAT;0;False;1;FLOAT4;0\nNode;AmplifyShaderEditor.UnpackScaleNormalNode;12;-898.4255,806.7103;Float;False;2;0;FLOAT4;0,0,0,0;False;1;FLOAT;1;False;4;FLOAT3;0;FLOAT;1;FLOAT;2;FLOAT;3\nNode;AmplifyShaderEditor.SamplerNode;2;-1570.425,662.7104;Float;True;Property;_Normal0;Normal0;5;1;[HideInInspector];Create;True;0;0;False;0;None;None;True;0;False;white;Auto;False;Object;-1;Auto;Texture2D;6;0;SAMPLER2D;;False;1;FLOAT2;0,0;False;2;FLOAT;0;False;3;FLOAT2;0,0;False;4;FLOAT2;0,0;False;5;FLOAT;1;False;5;COLOR;0;FLOAT;1;FLOAT;2;FLOAT;3;FLOAT;4\nNode;AmplifyShaderEditor.GetLocalVarNode;27;-26.81078,469.6178;Float;False;22;SplatWeight;1;0;OBJECT;0;False;1;FLOAT;0\nNode;AmplifyShaderEditor.SimpleMultiplyOpNode;44;-1252.967,-522.7264;Float;False;2;2;0;FLOAT4;0,0,0,0;False;1;COLOR;0,0,0,0;False;1;FLOAT4;0\nNode;AmplifyShaderEditor.DynamicAppendNode;39;-1432.712,-1076.035;Float;False;FLOAT4;4;0;FLOAT;0;False;1;FLOAT;0;False;2;FLOAT;0;False;3;FLOAT;0;False;1;FLOAT4;0\nNode;AmplifyShaderEditor.CustomExpressionNode;74;-2041.122,125.4553;Float;False;#if
    !defined(SHADER_API_MOBILE) && defined(TERRAIN_SPLAT_ADDPASS)$\tclip(SplatWeight
    == 0.0f ? -1 : 1)@$#endif;1;True;1;True;SplatWeight;FLOAT;0;In;;Float;False;SplatClip;False;False;0;2;0;FLOAT;0;False;1;FLOAT;0;False;1;FLOAT;0\nNode;AmplifyShaderEditor.FunctionOutput;14;-417.8965,837.867;Float;False;False;Normal;1;False;1;0;FLOAT3;0,0,0;False;1;FLOAT3;0\nNode;AmplifyShaderEditor.FunctionOutput;19;440.2847,459.2127;Float;False;False;Alpha;4;False;1;0;FLOAT;0;False;1;FLOAT;0\nNode;AmplifyShaderEditor.FunctionOutput;17;887.9049,1074.737;Float;False;False;Tangents;5;False;1;0;FLOAT3;0,0,0;False;1;FLOAT3;0\nNode;AmplifyShaderEditor.FunctionOutput;0;-129.3863,-743.9177;Float;False;True;Albedo;0;False;1;0;FLOAT4;0,0,0,0;False;1;FLOAT4;0\nNode;AmplifyShaderEditor.FunctionOutput;45;734.1545,848.3605;Float;False;False;Smoothness;3;False;1;0;FLOAT;0;False;1;FLOAT;0\nNode;AmplifyShaderEditor.FunctionOutput;56;896.053,1594.737;Float;False;False;Metallic;2;False;1;0;FLOAT;0;False;1;FLOAT;0\nWireConnection;28;0;9;0\nWireConnection;61;0;12;0\nWireConnection;58;0;47;0\nWireConnection;20;0;5;0\nWireConnection;20;1;21;0\nWireConnection;47;0;46;0\nWireConnection;23;0;5;0\nWireConnection;23;1;24;0\nWireConnection;10;1;72;0\nWireConnection;26;0;23;0\nWireConnection;57;0;53;0\nWireConnection;1;1;71;0\nWireConnection;75;0;16;0\nWireConnection;75;3;76;0\nWireConnection;75;1;76;0\nWireConnection;75;2;76;0\nWireConnection;78;0;77;0\nWireConnection;78;1;81;0\nWireConnection;78;2;80;0\nWireConnection;59;0;26;0\nWireConnection;22;0;20;0\nWireConnection;53;0;54;0\nWireConnection;53;1;55;0\nWireConnection;55;0;48;0\nWireConnection;55;1;49;0\nWireConnection;55;2;50;0\nWireConnection;55;3;51;0\nWireConnection;24;0;74;0\nWireConnection;24;1;25;0\nWireConnection;35;0;33;0\nWireConnection;35;1;4;0\nWireConnection;36;0;37;0\nWireConnection;36;1;37;0\nWireConnection;36;2;37;0\nWireConnection;36;3;30;0\nWireConnection;38;0;36;0\nWireConnection;38;1;3;0\nWireConnection;60;0;28;0\nWireConnection;8;0;59;0\nWireConnection;8;1;2;0\nWireConnection;8;2;1;0\nWireConnection;8;3;10;0\nWireConnection;8;4;11;0\nWireConnection;33;0;34;0\nWireConnection;33;1;34;0\nWireConnection;33;2;34;0\nWireConnection;33;3;29;0\nWireConnection;11;1;73;0\nWireConnection;41;0;39;0\nWireConnection;41;1;6;0\nWireConnection;62;0;27;0\nWireConnection;76;0;78;0\nWireConnection;9;0;59;0\nWireConnection;9;1;35;0\nWireConnection;9;2;38;0\nWireConnection;9;3;41;0\nWireConnection;9;4;44;0\nWireConnection;42;0;43;0\nWireConnection;42;1;43;0\nWireConnection;42;2;43;0\nWireConnection;42;3;32;0\nWireConnection;12;0;8;0\nWireConnection;2;1;70;0\nWireConnection;44;0;42;0\nWireConnection;44;1;7;0\nWireConnection;39;0;40;0\nWireConnection;39;1;40;0\nWireConnection;39;2;40;0\nWireConnection;39;3;31;0\nWireConnection;74;0;22;0\nWireConnection;74;1;22;0\nWireConnection;14;0;61;0\nWireConnection;19;0;62;0\nWireConnection;17;0;75;0\nWireConnection;0;0;60;0\nWireConnection;45;0;58;0\nWireConnection;56;0;57;0\nASEEND*/\n//CHKSM=91CA8689A140B3B105BDE81ED5764B0A75430DD4"
  m_functionName: 
  m_description: Creates a Standard Terrain shader. On main shader the tag SplatCount
    must be created with a value of 4.
  m_additionalIncludes:
    m_additionalIncludes: []
    m_outsideIncludes: []
  m_additionalPragmas:
    m_additionalPragmas: []
    m_outsidePragmas: []
  m_additionalDirectives:
    m_validData: 0
    m_isDirty: 0
    m_moduleName: ' Additional Directives'
    m_independentModule: 1
    m_additionalDirectives: []
    m_shaderFunctionDirectives: []
    m_nativeDirectives: []
    m_nativeDirectivesIndex: -1
    m_nativeDirectivesFoldout: 0
    m_directivesSaveItems: []
  m_nodeCategory: 9
  m_customNodeCategory: Terrain
  m_previewPosition: 0
  m_hidden: 0
